{
    "CacheThumbnail": true,
    "KPlugin": {
        "MimeTypes": [
            "application/x-iso9660-appimage",
            "application/vnd.appimage"
        ],
        "Name": "AppImage",
        "Name[ar]": "صورة تطبيق AppImage",
        "Name[be]": "AppImage",
        "Name[bg]": "AppImage",
        "Name[ca@valencia]": "AppImage",
        "Name[ca]": "AppImage",
        "Name[cs]": "AppImage",
        "Name[de]": "AppImage",
        "Name[en_GB]": "AppImage",
        "Name[eo]": "AppImage",
        "Name[es]": "AppImage",
        "Name[eu]": "AppImage",
        "Name[fi]": "AppImage",
        "Name[fr]": "AppImage",
        "Name[gl]": "AppImage",
        "Name[he]": "AppImage",
        "Name[hu]": "AppImage",
        "Name[ia]": "AppImage",
        "Name[ie]": "AppImage",
        "Name[is]": "AppImage",
        "Name[it]": "AppImage",
        "Name[ka]": "AppImage",
        "Name[ko]": "AppImage",
        "Name[lt]": "AppImage",
        "Name[nl]": "AppImage",
        "Name[nn]": "AppImage",
        "Name[pa]": "AppImage",
        "Name[pl]": "AppImage",
        "Name[pt]": "AppImage",
        "Name[pt_BR]": "AppImage",
        "Name[ru]": "AppImage",
        "Name[sk]": "AppImage",
        "Name[sl]": "AppImage",
        "Name[sv]": "AppImage",
        "Name[ta]": "AppImage",
        "Name[tr]": "AppImage",
        "Name[uk]": "AppImage",
        "Name[vi]": "AppImage",
        "Name[x-test]": "xxAppImagexx",
        "Name[zh_CN]": "AppImage 软件包",
        "Name[zh_TW]": "AppImage"
    }
}
