{
    "CacheThumbnail": true,
    "KPlugin": {
        "MimeTypes": [
            "application/x-cbz",
            "application/x-cbr",
            "application/x-cbt",
            "application/vnd.comicbook+zip",
            "application/vnd.comicbook-rar",
            "application/vnd.comicbook+tar",
            "application/x-cb7"
        ],
        "Name": "Comic Books",
        "Name[ar]": "الكتب الهزليّة",
        "Name[be]": "Коміксы",
        "Name[bg]": "Комикси",
        "Name[ca@valencia]": "Llibres de còmics",
        "Name[ca]": "Llibres de còmics",
        "Name[cs]": "Komiksy",
        "Name[de]": "Comic-Buch",
        "Name[en_GB]": "Comic Books",
        "Name[eo]": "Comic Books",
        "Name[es]": "Libros de cómic",
        "Name[eu]": "Komiki-liburuak",
        "Name[fi]": "Sarjakuvakirjat",
        "Name[fr]": "Bandes dessinées",
        "Name[gl]": "Libros de banda deseñada",
        "Name[he]": "ספרי קומיקס",
        "Name[hu]": "Képregények",
        "Name[ia]": "Libros de Comic",
        "Name[ie]": "Novelles dessinat",
        "Name[is]": "Myndasögur",
        "Name[it]": "Fumetti",
        "Name[ka]": "კომიქსები",
        "Name[ko]": "만화책",
        "Name[lt]": "Komiksų knygos",
        "Name[nl]": "Stripboeken",
        "Name[nn]": "Teikneseriar",
        "Name[pa]": "ਹਾਸਰਸ ਕਿਤਾਬਾਂ",
        "Name[pl]": "Komiksy",
        "Name[pt]": "Bandas Desenhadas",
        "Name[pt_BR]": "Comic Books",
        "Name[ru]": "Комиксы",
        "Name[sk]": "Komiksové knihy",
        "Name[sl]": "Stripi",
        "Name[sv]": "Serietidningar",
        "Name[ta]": "வரைகதை புத்தகங்கள்",
        "Name[tr]": "Çizgi Romanlar",
        "Name[uk]": "Комікси",
        "Name[vi]": "Truyện tranh",
        "Name[x-test]": "xxComic Booksxx",
        "Name[zh_CN]": "Comic Books 漫画电子书文件",
        "Name[zh_TW]": "漫畫書"
    }
}
