{
    "CacheThumbnail": true,
    "IgnoreMaximumSize": true,
    "KPlugin": {
        "MimeTypes": [
            "image/vnd.djvu",
            "image/x.djvu",
            "image/vnd.djvu"
        ],
        "Name": "DjVu Files",
        "Name[ar]": "ملفّات DjVu",
        "Name[be]": "Файлы DjVu",
        "Name[bg]": "DjVu файлове",
        "Name[ca@valencia]": "Fitxers DjVu",
        "Name[ca]": "Fitxers DjVu",
        "Name[cs]": "DjVu soubory",
        "Name[de]": "DjVu-Dateien",
        "Name[en_GB]": "DjVu Files",
        "Name[eo]": "DjVu Dosieroj",
        "Name[es]": "Archivos DjVu",
        "Name[eu]": "DjVu fitxategiak",
        "Name[fi]": "DjVu-tiedostot",
        "Name[fr]": "Fichiers « DjVu »",
        "Name[gl]": "Ficheiros DjVu",
        "Name[he]": "קובצי DjVu",
        "Name[hu]": "DjVu-fájlok",
        "Name[ia]": "Files DjVu",
        "Name[ie]": "Files DjVu",
        "Name[is]": "DjVu-skrár",
        "Name[it]": "File DjVu",
        "Name[ka]": "DjVu ფაილები",
        "Name[ko]": "DjVu 파일",
        "Name[lt]": "DjVu failai",
        "Name[nl]": "DjVu-bestanden",
        "Name[nn]": "DjVu-filer",
        "Name[pa]": "DjVu ਫਾਇਲਾਂ",
        "Name[pl]": "Pliki DjVu",
        "Name[pt]": "Ficheiros do DjVu",
        "Name[pt_BR]": "Arquivos DjVu",
        "Name[ru]": "Файлы DjVu",
        "Name[sk]": "Súbory DjVu",
        "Name[sl]": "Datoteke DjVu",
        "Name[sv]": "DjVu-filer",
        "Name[ta]": "DjVu கோப்புகள்",
        "Name[tr]": "DjVu Dosyaları",
        "Name[uk]": "Файли DjVu",
        "Name[vi]": "Tệp DjVu",
        "Name[x-test]": "xxDjVu Filesxx",
        "Name[zh_CN]": "DjVu 文件",
        "Name[zh_TW]": "DjVu 檔案"
    }
}
