{
    "CacheThumbnail": true,
    "KPlugin": {
        "MimeTypes": [
            "image/*",
            "video/x-mng"
        ],
        "Name": "Images (GIF, PNG, BMP, ...)",
        "Name[ar]": "الصّور (GIF،‏ PNG،‏ BMP، ...)",
        "Name[be]": "Выявы (GIF, PNG, BMP, ...)",
        "Name[bg]": "Изображения (GIF, PNG, BMP, ...)",
        "Name[ca@valencia]": "Imatges (GIF, PNG, BMP...)",
        "Name[ca]": "Imatges (GIF, PNG, BMP...)",
        "Name[cs]": "Obrázky (GIF, PNG, BMP, ...)",
        "Name[de]": "Bilder (GIF, PNG, BMP ...)",
        "Name[en_GB]": "Images (GIF, PNG, BMP, ...)",
        "Name[eo]": "Bildoj (GIF, PNG, BMP, ...)",
        "Name[es]": "Imágenes (GIF, PNG, BMP...)",
        "Name[eu]": "Irudiak (GIF, PNG, BMP, ...)",
        "Name[fi]": "Kuvat (GIF, PNG, BMP…)",
        "Name[fr]": "Images (GIF, PNG, BMP, ...)",
        "Name[gl]": "Imaxes (GIF, PNG, BMP, …)",
        "Name[he]": "תמונות (‎GIF,‏ PNG,‏ BMP…)",
        "Name[hu]": "Képek (GIF, PNG, BMP, …)",
        "Name[ia]": "Imagines (GIF, PNG, BMP, ...)",
        "Name[ie]": "Images (GIF, PNG, BMP, ...)",
        "Name[is]": "Myndir (GIF, PNG, BMP, ...)",
        "Name[it]": "Immagini (GIF, PNG, BMP, ...)",
        "Name[ka]": "გამოსახულებები (GIF, PNG, BMP, ...)",
        "Name[ko]": "그림 (GIF, PNG, BMP, ...)",
        "Name[lt]": "Paveikslai (GIF, PNG, BMP, ...)",
        "Name[nl]": "Afbeeldingen (GIF, PNG, BMP, ...)",
        "Name[nn]": "Bilete (GIF, PNG, BMP, …)",
        "Name[pa]": "ਚਿੱਤਰ (GIF, PNG, BMP, ...)",
        "Name[pl]": "Obrazy (GIF, PNG, BMP, ...)",
        "Name[pt]": "Imagens (GIF, PNG, BMP, ...)",
        "Name[pt_BR]": "Imagens (GIF, PNG, BMP, ...)",
        "Name[ru]": "Изображения (GIF, PNG, BMP, ...)",
        "Name[sk]": "Obrázky (GIF, PNG, BMP, ...)",
        "Name[sl]": "Slike (GIF, PNG, BMP, ...)",
        "Name[sv]": "Bilder (GIF, PNG, BMP, ...)",
        "Name[ta]": "படங்கள் (GIF, PNG, BMP, ...)",
        "Name[tr]": "Görseller (GIF, PNG, BMP, ...)",
        "Name[uk]": "Зображення (GIF, PNG, BMP…)",
        "Name[vi]": "Ảnh (GIF, PNG, BMP, ...)",
        "Name[x-test]": "xxImages (GIF, PNG, BMP, ...)xx",
        "Name[zh_CN]": "图像 (GIF、PNG、BMP 等)",
        "Name[zh_TW]": "影像 (GIF, PNG, BMP, ...)"
    }
}
