{
    "CacheThumbnail": true,
    "KPlugin": {
        "MimeTypes": [
            "image/jpeg"
        ],
        "Name": "JPEG Images",
        "Name[ar]": "صور JPEG",
        "Name[be]": "Выявы JPEG",
        "Name[bg]": "Изображения JPEG",
        "Name[ca@valencia]": "Imatges JPEG",
        "Name[ca]": "Imatges JPEG",
        "Name[cs]": "JPEG obrázky",
        "Name[de]": "JPEG-Bilder",
        "Name[en_GB]": "JPEG Images",
        "Name[eo]": "JPEG-bildoj",
        "Name[es]": "Imágenes JPEG",
        "Name[eu]": "JPEG irudiak",
        "Name[fi]": "JPEG-kuvat",
        "Name[fr]": "Images « JPEG »",
        "Name[gl]": "Imaxes JPEG",
        "Name[he]": "תמונות JPEG",
        "Name[hu]": "JPEG-képek",
        "Name[ia]": "Imagines JPEG",
        "Name[ie]": "Images JPEG",
        "Name[is]": "JPEG-myndir",
        "Name[it]": "Immagini JPEG",
        "Name[ka]": "JPEG გამოსახულებები",
        "Name[ko]": "JPEG 그림",
        "Name[lt]": "JPEG paveikslai",
        "Name[nl]": "JPEG-afbeeldingen",
        "Name[nn]": "JPEG-bilete",
        "Name[pa]": "JPEG ਚਿੱਤਰ",
        "Name[pl]": "Obrazy JPEG",
        "Name[pt]": "Imagens JPEG",
        "Name[pt_BR]": "Imagens JPEG",
        "Name[ru]": "Изображения JPEG",
        "Name[sk]": "Obrázky JPEG",
        "Name[sl]": "Slike JPEG",
        "Name[sv]": "JPEG-bilder",
        "Name[ta]": "JPEG படங்கள்",
        "Name[tr]": "JPEG Görselleri",
        "Name[uk]": "Зображення JPEG",
        "Name[vi]": "Ảnh JPEG",
        "Name[x-test]": "xxJPEG Imagesxx",
        "Name[zh_CN]": "JPEG 图像",
        "Name[zh_TW]": "JPEG 影像"
    },
    "ThumbnailerVersion": "2"
}
