{
    "CacheThumbnail": false,
    "KPlugin": {
        "MimeTypes": [
            "text/plain"
        ],
        "Name": "Text Files",
        "Name[ar]": "ملفّات نصّيّة",
        "Name[be]": "Тэкставыя файлы",
        "Name[bg]": "Текстови файлове",
        "Name[ca@valencia]": "Fitxers de text",
        "Name[ca]": "Fitxers de text",
        "Name[cs]": "Textové soubory",
        "Name[de]": "Textdateien",
        "Name[en_GB]": "Text Files",
        "Name[eo]": "Tekstaj Dosieroj",
        "Name[es]": "Archivos de texto",
        "Name[eu]": "Testu-fitxategiak",
        "Name[fi]": "Tekstitiedostot",
        "Name[fr]": "Fichiers de texte",
        "Name[gl]": "Ficheiros de texto",
        "Name[he]": "קובצי טקסט",
        "Name[hu]": "Szövegfájlok",
        "Name[ia]": "Files de texto",
        "Name[ie]": "Files textual",
        "Name[is]": "Textaskrár",
        "Name[it]": "File di testo",
        "Name[ka]": "ტექსტური ფაილები",
        "Name[ko]": "텍스트 파일",
        "Name[lt]": "Tekstiniai failai",
        "Name[nl]": "Tekstbestanden",
        "Name[nn]": "Tekstfiler",
        "Name[pa]": "ਲਿਖਤ ਫਾਇਲਾਂ",
        "Name[pl]": "Pliki tekstowe",
        "Name[pt]": "Ficheiros de Texto",
        "Name[pt_BR]": "Arquivos de texto",
        "Name[ru]": "Текстовые файлы",
        "Name[sk]": "Textové súbory",
        "Name[sl]": "Besedilne datoteke",
        "Name[sv]": "Textfiler",
        "Name[ta]": "உரை கோப்புகள்",
        "Name[tr]": "Metin Dosyaları",
        "Name[uk]": "Текстові файли",
        "Name[vi]": "Tệp văn bản",
        "Name[x-test]": "xxText Filesxx",
        "Name[zh_CN]": "文本文件",
        "Name[zh_TW]": "文字檔"
    }
}
